sandbox/deserializer_take_01/simulation/qsim/deserializer.msim.vcd
$comment
	File created using the following command:
		vcd file deserializer.msim.vcd -direction
$end
$date
	Sun Dec 14 19:20:10 2014
$end
$version
	ModelSim Version 10.1e
$end
$timescale
	1ps
$end
$scope module deserializer_vlg_vec_tst $end
$var reg 1 ! clk $end
$var reg 1 " reset $end
$var reg 1 # serial_data_in $end
$var wire 1 $ parallel_data_out [7] $end
$var wire 1 % parallel_data_out [6] $end
$var wire 1 & parallel_data_out [5] $end
$var wire 1 ' parallel_data_out [4] $end
$var wire 1 ( parallel_data_out [3] $end
$var wire 1 ) parallel_data_out [2] $end
$var wire 1 * parallel_data_out [1] $end
$var wire 1 + parallel_data_out [0] $end
$var wire 1 , sampler $end
$scope module i1 $end
$var wire 1 - gnd $end
$var wire 1 . vcc $end
$var wire 1 / unknown $end
$var tri1 1 0 devclrn $end
$var tri1 1 1 devpor $end
$var tri1 1 2 devoe $end
$var wire 1 3 ~QUARTUS_CREATED_GND~I_combout $end
$var wire 1 4 clk~input_o $end
$var wire 1 5 clk~inputCLKENA0_outclk $end
$var wire 1 6 serial_data_in~input_o $end
$var wire 1 7 parallel_data_out[0]~reg0feeder_combout $end
$var wire 1 8 reset~input_o $end
$var wire 1 9 parallel_data_out[0]~reg0_q $end
$var wire 1 : parallel_data_out[1]~reg0feeder_combout $end
$var wire 1 ; parallel_data_out[1]~reg0_q $end
$var wire 1 < parallel_data_out[2]~reg0feeder_combout $end
$var wire 1 = parallel_data_out[2]~reg0_q $end
$var wire 1 > parallel_data_out[2]~reg0DUPLICATE_q $end
$var wire 1 ? parallel_data_out[3]~reg0feeder_combout $end
$var wire 1 @ parallel_data_out[3]~reg0_q $end
$var wire 1 A parallel_data_out[3]~reg0DUPLICATE_q $end
$var wire 1 B parallel_data_out[4]~reg0feeder_combout $end
$var wire 1 C parallel_data_out[4]~reg0_q $end
$var wire 1 D parallel_data_out[4]~reg0DUPLICATE_q $end
$var wire 1 E parallel_data_out[5]~reg0feeder_combout $end
$var wire 1 F parallel_data_out[5]~reg0_q $end
$var wire 1 G parallel_data_out[6]~reg0feeder_combout $end
$var wire 1 H parallel_data_out[6]~reg0_q $end
$var wire 1 I parallel_data_out[7]~reg0feeder_combout $end
$var wire 1 J parallel_data_out[7]~reg0_q $end
$upscope $end
$upscope $end
$enddefinitions $end
#0
$dumpvars
0!
0"
1#
0+
0*
0)
0(
0'
0&
0%
0$
x,
0-
1.
x/
10
11
12
03
04
05
16
17
08
09
0:
0;
0<
0=
0>
0?
0@
0A
0B
0C
0D
0E
0F
0G
0H
0I
0J
$end
#10000
1!
0#
14
06
15
0,
07
19
1:
1+
#20000
0!
04
05
1,
#30000
1!
14
15
0,
1;
09
1<
0:
1*
0+
#40000
0!
04
05
1,
#50000
1!
14
15
0,
1>
1=
0;
1?
0<
1)
0*
#60000
0!
04
05
1,
#70000
1!
14
15
0,
1A
0>
1@
0=
1B
0?
1(
0)
#80000
0!
04
05
1,
#90000
1!
14
15
0,
1D
0A
1C
0@
1E
0B
1'
0(
#100000
0!
04
05
1,
#110000
1!
14
15
0,
0D
1F
0C
0E
1G
1&
0'
#120000
0!
04
05
1,
#130000
1!
14
15
0,
1H
0F
1I
0G
1%
0&
#140000
0!
04
05
1,
#150000
1!
14
15
0,
1J
0H
0I
1$
0%
#160000
0!
04
05
1,
#170000
1!
14
15
0,
0J
0$
#180000
0!
04
05
1,
#190000
1!
14
15
0,
#200000
0!
04
05
1,
#210000
1!
14
15
0,
#220000
0!
04
05
1,
#230000
1!
14
15
0,
#240000
0!
04
05
1,
#250000
1!
14
15
0,
#260000
0!
04
05
1,
#270000
1!
14
15
0,
#280000
0!
04
05
1,
#290000
1!
14
15
0,
#300000
0!
04
05
1,
#310000
1!
14
15
0,
#320000
0!
04
05
1,
#330000
1!
14
15
0,
#340000
0!
04
05
1,
#350000
1!
14
15
0,
#360000
0!
04
05
1,
#370000
1!
14
15
0,
#380000
0!
04
05
1,
#390000
1!
14
15
0,
#400000
0!
04
05
1,
#410000
1!
14
15
0,
#420000
0!
04
05
1,
#430000
1!
14
15
0,
#440000
0!
04
05
1,
#450000
1!
14
15
0,
#460000
0!
04
05
1,
#470000
1!
14
15
0,
#480000
0!
04
05
1,
#490000
1!
14
15
0,
#500000
0!
04
05
1,
#510000
1!
14
15
0,
#520000
0!
04
05
1,
#530000
1!
14
15
0,
#540000
0!
04
05
1,
#550000
1!
14
15
0,
#560000
0!
04
05
1,
#570000
1!
14
15
0,
#580000
0!
04
05
1,
#590000
1!
14
15
0,
#600000
0!
04
05
1,
#610000
1!
14
15
0,
#620000
0!
04
05
1,
#630000
1!
14
15
0,
#640000
0!
04
05
1,
#650000
1!
14
15
0,
#660000
0!
04
05
1,
#670000
1!
14
15
0,
#680000
0!
04
05
1,
#690000
1!
14
15
0,
#700000
0!
04
05
1,
#710000
1!
14
15
0,
#720000
0!
04
05
1,
#730000
1!
14
15
0,
#740000
0!
04
05
1,
#750000
1!
14
15
0,
#760000
0!
04
05
1,
#770000
1!
14
15
0,
#780000
0!
04
05
1,
#790000
1!
14
15
0,
#800000
0!
04
05
1,
#810000
1!
14
15
0,
#820000
0!
04
05
1,
#830000
1!
14
15
0,
#840000
0!
04
05
1,
#850000
1!
14
15
0,
#860000
0!
04
05
1,
#870000
1!
14
15
0,
#880000
0!
04
05
1,
#890000
1!
14
15
0,
#900000
0!
04
05
1,
#910000
1!
14
15
0,
#920000
0!
04
05
1,
#930000
1!
14
15
0,
#940000
0!
04
05
1,
#950000
1!
14
15
0,
#960000
0!
04
05
1,
#970000
1!
14
15
0,
#980000
0!
04
05
1,
#990000
1!
14
15
0,
